1;8;2;44
2;9;3;49
3;47;9;27
4;19;6;91
5;7;3;37
6;28;8;39
7;13;8;90
8;12;4;26
9;9;7;94
10;8;4;69
11;51;7;68
12;23;4;5
13;13;7;76
14;48;6;38
15;14;6;11
16;34;7;89
17;20;6;85
18;4;5;68
19;24;8;39
20;29;3;62
21;32;6;62
22;11;5;90
23;35;8;9
24;9;5;17
25;48;5;77
26;27;2;43
27;8;8;62
28;27;7;4
29;40;5;20
30;37;3;37
31;25;3;44
32;23;9;33
33;18;7;95
34;36;5;46
35;14;2;89
36;26;6;75
37;35;3;54
38;40;4;18
39;36;6;69
40;37;4;30
41;42;8;8
42;24;4;18
